<?xml version="1.0" encoding="utf-8"?>
<!-- Generator: Adobe Illustrator 19.0.0, SVG Export Plug-In . SVG Version: 6.00 Build 0)  -->
<svg version="1.1" xmlns="http://www.w3.org/2000/svg" xmlns:xlink="http://www.w3.org/1999/xlink" x="0px" y="0px"
	 viewBox="0 0 91.8 91.8" style="enable-background:new 0 0 91.8 91.8;" xml:space="preserve">
<style type="text/css">
	.st0{display:none;}
	.st1{fill:#FFFFFF;}
</style>
<g id="Layer_1" class="st0">
	
		<image style="display:inline;overflow:visible;" width="97" height="91" xlink:href="../../../../Desktop/Screen Shot 2016-09-18 at 1.39.22 AM.png"  transform="matrix(1 0 0 1 3.889 -6.111)">
	</image>
</g>
<g id="Layer_2">
	<g id="Layer_3">
	</g>
	<g id="XMLID_2_">
		<path id="XMLID_14_" class="st1" d="M19.7,56.4C11.6,52.1,9.7,45,9.6,40.1C8.4,45.4,9.3,51.5,12.3,57c5.2,9.5,15.2,15.4,27.5,16.1
			c29.7,1.7,40.6-10.1,42.8-13c-2.4-1.2-10.4-5.2-18.5-9.1C51,61.7,33.6,63.8,19.7,56.4z"/>
		<g id="XMLID_1_">
			<path id="XMLID_8_" class="st1" d="M39.9,73.1c12.4,0.7,21.5-0.9,28.1-3.3c3.6-3.7,6.3-8.1,8-13.1c-3.4-1.7-7.5-3.7-11.7-5.7
				C51,61.7,33.6,63.8,19.7,56.4C11.6,52.1,9.7,45,9.6,40.1C8.4,45.4,9.3,51.5,12.3,57C17.5,66.5,27.5,72.4,39.9,73.1z"/>
			<path id="XMLID_9_" class="st1" d="M45.8,74.8c-1.9,0-3.9-0.1-6-0.2c-12.6-0.7-23-6.7-28.5-16.5c4.9,12.9,17.4,22.1,32.1,22.1
				c8.3,0,16-3,21.9-7.9C60.1,73.8,53.7,74.8,45.8,74.8z"/>
			<path id="XMLID_10_" class="st1" d="M11.1,34.1c0.3,0.1,0.5,0.5,0.4,0.9c-0.1,0.6-3.5,13.5,8.9,20.2c13.5,7.2,30.4,5,43.2-5.6
				c0.2-0.2,0.5-0.2,0.8-0.1c4.3,2,8.5,4.1,12,5.8c0.8-3,1.3-6.1,1.3-9.4c0-19-15.4-34.4-34.4-34.4C28.5,11.5,15.9,20.9,11.1,34.1
				C11.1,34.1,11.1,34.1,11.1,34.1z"/>
		</g>
	</g>
</g>
</svg>
