<?xml version="1.0" encoding="utf-8"?>
<!-- Generator: Adobe Illustrator 19.0.0, SVG Export Plug-In . SVG Version: 6.00 Build 0)  -->
<svg version="1.1" id="Layer_1" xmlns="http://www.w3.org/2000/svg" xmlns:xlink="http://www.w3.org/1999/xlink" x="0px" y="0px"
	 viewBox="-99 88 100 125" style="enable-background:new -99 88 100 125;" xml:space="preserve">
<style type="text/css">
	.st0{fill:#EEB11D;}
</style>
<path class="st0" d="M-42.4,167.6l-6.6,6.6l-6.6-6.6c-0.8-0.8-2-0.8-2.8,0c-0.8,0.8-0.8,2,0,2.8l8,8c0.4,0.4,0.9,0.6,1.4,0.6
	s1-0.2,1.4-0.6l8-8c0.8-0.8,0.8-2,0-2.8C-40.4,166.8-41.6,166.8-42.4,167.6z"/>
<path class="st0" d="M-39.6,156.6c-0.8-0.8-2-0.8-2.8,0l-6.6,6.6l-6.6-6.6c-0.8-0.8-2-0.8-2.8,0c-0.8,0.8-0.8,2,0,2.8l8,8
	c0.4,0.4,0.9,0.6,1.4,0.6s1-0.2,1.4-0.6l8-8C-38.8,158.6-38.8,157.4-39.6,156.6z"/>
<path class="st0" d="M-31,133v-18c0-9.9-8.1-18-18-18s-18,8.1-18,18v18c0,9.9,8.1,18,18,18S-31,142.9-31,133z M-49,147
	c-7.7,0-14-6.3-14-14v-18c0-7.7,6.3-14,14-14s14,6.3,14,14v18C-35,140.7-41.3,147-49,147z"/>
<path class="st0" d="M-49,108c-1.1,0-2,0.9-2,2v6c0,1.1,0.9,2,2,2s2-0.9,2-2v-6C-47,108.9-47.9,108-49,108z"/>
</svg>
